QuEST coding workshop day 2: tidyverse introduction
…
Learning resources

Cheatsheets are a great way to learn a package quickly. I also like to use them to learn a package while working. Ill pull up the package I want to learn, and try to find ways to use different functions from it for whatever Im doing.

R for Data Science (R4DS) can be good for all levels, and centers around the tidyverse. It starts very gently and assumes almost no R knowledge. There are also exercises and solutions available.

Advanced R is a more general programming guide, but draws heavily from tidyverse packages.

tibbles and tidyr

The most fundamental data structure for tidyverse is a modernization of the dataframe. The most important differences are clearer printing and more flexible column names.

(dat <- starwars)

## # A tibble: 87 x 14
##    name    height  mass hair_color  skin_color eye_color birth_year sex   gender
##    <chr>    <int> <dbl> <chr>       <chr>      <chr>          <dbl> <chr> <chr> 
##  1 Luke S~    172    77 blond       fair       blue            19   male  mascu~
##  2 C-3PO      167    75 <NA>        gold       yellow         112   none  mascu~
##  3 R2-D2       96    32 <NA>        white, bl~ red             33   none  mascu~
##  4 Darth ~    202   136 none        white      yellow          41.9 male  mascu~
##  5 Leia O~    150    49 brown       light      brown           19   fema~ femin~
##  6 Owen L~    178   120 brown, grey light      blue            52   male  mascu~
##  7 Beru W~    165    75 brown       light      blue            47   fema~ femin~
##  8 R5-D4       97    32 <NA>        white, red red             NA   none  mascu~
##  9 Biggs ~    183    84 black       light      brown           24   male  mascu~
## 10 Obi-Wa~    182    77 auburn, wh~ fair       blue-gray       57   male  mascu~
## # ... with 77 more rows, and 5 more variables: homeworld <chr>, species <chr>,
## #   films <list>, vehicles <list>, starships <list>
…
## # A tibble: 3 x 2
##       x y    
##   <dbl> <chr>
## 1     1 A    
## 2     2 B    
## 3     3 C

Creating tibbles from dataframes, matrices, or named vectors:

## # A tibble: 50 x 2
##    speed  dist
##    <dbl> <dbl>
##  1     4     2
##  2     4    10
##  3     7     4
##  4     7    22
##  5     8    16
##  6     9    10
##  7    10    18
##  8    10    26
##  9    10    34
## 10    11    17
## # ... with 40 more rows
…
The pipe operator

Notice that most tidyverse functions are verbs or adverbs (coding is, after all, just giving instructions). There is a special operator, the pipe operator, which allows these commands to be chained together!

As an example, lets create a random population of 1,000 of the starwars characters:

dat |> # start of chain is the data
  filter(eye_color == 'blue') |> # each step takes the previous result
  select(height:species) |> # and does a new thing to it
  drop_na() |>
  slice_sample(n = 1000, replace = TRUE)

## # A tibble: 1,000 x 10
##    height  mass hair_color skin_color eye_color birth_year sex    gender   
##     <int> <dbl> <chr>      <chr>      <chr>          <dbl> <chr>  <chr>    
##  1    175  79   none       light      blue            37   male   masculine
##  2    166  50   black      yellow     blue            40   female feminine 
##  3    165  75   brown      light      blue            47   female feminine 
##  4    188  84   blond      fair       blue            41.9 male   masculine
##  5    175  79   none       light      blue            37   male   masculine
##  6    166  50   black      yellow     blue            40   female feminine 
##  7    175  79   none       light      blue            37   male   masculine
##  8    170  56.2 black      yellow     blue            58   female feminine 
##  9    170  56.2 black      yellow     blue            58   female feminine 
## 10    165  75   brown      light      blue            47   female feminine 
## # ... with 990 more rows, and 2 more variables: homeworld <chr>, species <chr>

x |> f |> g is the same as g(f(x)); however, when you string alot of functions together piping makes things more readable.

Mutate, summarize, and count

Another family of dplyr functions use existing columns to make new ones. The most common is mutate, which appends a new row based on a vectorized function of existing rows.

dat |>
  mutate(mass_per_cm = mass / height) # divide mass column by height column

## # A tibble: 87 x 15
##    name    height  mass hair_color  skin_color eye_color birth_year sex   gender
##    <chr>    <int> <dbl> <chr>       <chr>      <chr>          <dbl> <chr> <chr> 
##  1 Luke S~    172    77 blond       fair       blue            19   male  mascu~
##  2 C-3PO      167    75 <NA>        gold       yellow         112   none  mascu~
##  3 R2-D2       96    32 <NA>        white, bl~ red             33   none  mascu~
##  4 Darth ~    202   136 none        white      yellow          41.9 male  mascu~
##  5 Leia O~    150    49 brown       light      brown           19   fema~ femin~
##  6 Owen L~    178   120 brown, grey light      blue            52   male  mascu~
##  7 Beru W~    165    75 brown       light      blue            47   fema~ femin~
##  8 R5-D4       97    32 <NA>        white, red red             NA   none  mascu~
##  9 Biggs ~    183    84 black       light      brown           24   male  mascu~
## 10 Obi-Wa~    182    77 auburn, wh~ fair       blue-gray       57   male  mascu~
## # ... with 77 more rows, and 6 more variables: homeworld <chr>, species <chr>,
## #   films <list>, vehicles <list>, starships <list>, mass_per_cm <dbl>
…
Here we have used the tidyr function unnest, which expands a column of lists (a list of lists, really) into a longer column with each entry in each list as a new row.

Finally, the count function is for the common summarizing task of counting groups:

count(dat, homeworld, sort = TRUE)

## # A tibble: 49 x 2
##    homeworld     n
##    <chr>     <int>
##  1 Naboo        11
##  2 Tatooine     10
##  3 <NA>         10
##  4 Alderaan      3
##  5 Coruscant     3
##  6 Kamino        3
##  7 Corellia      2
##  8 Kashyyyk      2
##  9 Mirial        2
## 10 Ryloth        2
## # ... with 39 more rows
…
An example with data, counting how many times each color appears anywhere:

dat |>
  pivot_longer(
    hair_color:eye_color, 
    names_to='attribute', 
    values_to='color'
  ) |>
  count(color)

## # A tibble: 44 x 2
##    color             n
##    <chr>         <int>
##  1 auburn            1
##  2 auburn, grey      1
##  3 auburn, white     1
##  4 black            23
##  5 blond             3
##  6 blonde            1
##  7 blue             21
##  8 blue-gray         1
##  9 blue, grey        2
## 10 brown            43
## # ... with 34 more rows
…
